<svg width="24" height="24" viewBox="0 0 24 24" fill="none" xmlns="http://www.w3.org/2000/svg">
<path fill-rule="evenodd" clip-rule="evenodd" d="M5.59454 4.33939C3.92782 5.11693 2.70717 6.96745 2.70717 9.17391C2.70717 11.4276 3.61136 13.1652 4.90535 14.6547C5.97329 15.8815 7.26528 16.8991 8.52511 17.89C8.82449 18.1259 9.12187 18.3608 9.41422 18.5957C9.94267 19.0214 10.4139 19.3938 10.869 19.6656C11.3231 19.9364 11.6888 20.0606 12.0002 20.0606C12.3116 20.0606 12.6773 19.9375 13.1314 19.6656C13.5865 19.3938 14.0577 19.0214 14.5862 18.5957C14.8775 18.3598 15.1759 18.1259 15.4753 17.89C16.7351 16.8991 18.0271 15.8815 19.095 14.6547C20.39 13.1652 21.2932 11.4276 21.2932 9.17391C21.2932 6.96848 20.0726 5.11693 18.4059 4.33939C16.925 3.64904 14.98 3.75674 13.0772 5.45544L14.542 6.95104C14.614 7.02197 14.6714 7.10684 14.7109 7.20068C14.7505 7.29452 14.7713 7.39547 14.7722 7.49762C14.7731 7.59977 14.7541 7.70108 14.7163 7.79565C14.6784 7.89022 14.6225 7.97614 14.5518 8.04841C14.4811 8.12068 14.397 8.17785 14.3044 8.21657C14.2118 8.2553 14.1126 8.27481 14.0126 8.27397C13.9125 8.27314 13.8136 8.25196 13.7217 8.21169C13.6297 8.17141 13.5466 8.11284 13.477 8.0394L11.4677 5.98885L11.4577 5.97859C9.39011 3.78341 7.21404 3.58339 5.59454 4.33939ZM12.0002 4.37632C9.67744 2.25294 7.0764 1.95547 4.96764 2.93919C2.74334 3.98036 1.2002 6.39301 1.2002 9.17494C1.2002 11.9087 2.31536 13.9951 3.77913 15.6774C4.95056 17.0242 6.3842 18.1516 7.65106 19.1466C7.93839 19.3723 8.21668 19.5918 8.4809 19.8051C8.99629 20.2196 9.54885 20.6607 10.1084 20.9951C10.668 21.3284 11.307 21.6003 12.0002 21.6003C12.6934 21.6003 13.3324 21.3284 13.892 20.9951C14.4525 20.6607 15.0041 20.2196 15.5195 19.8051C15.7947 19.5838 16.0713 19.3642 16.3493 19.1466C17.6152 18.1516 19.0498 17.0232 20.2213 15.6774C21.685 13.9951 22.8002 11.9087 22.8002 9.17494C22.8002 6.39301 21.2581 3.98036 19.0328 2.94124C16.924 1.95649 14.3229 2.25397 12.0002 4.37632Z" fill="#171621"/>
</svg>
